[gd_scene load_steps=2 format=2]

[sub_resource type="GDScript" id=1]
resource_name = "Pencil"
script/source = "# This code is MIT-licensed: \\
#		https://codeberg.org/Sosasees/mit-license/src/branch/2021/LICENSE
# Source: https://codeberg.org/Sosasees/simplest-paint-in-godot/
extends Node2D


onready var pencil : Node = get_node(\"..\")
var can_draw : bool = true
var points : Array = []


func _input(event) -> void:
	if can_draw:
		if(event is InputEventScreenTouch and event.is_pressed()) \\
				or event is InputEventScreenDrag:
					_add_point(event.get_position())
	if event is InputEventScreenTouch and not event.is_pressed():
		can_draw = false
		# at this point, the Line node stops doing anything, forever


func _draw() -> void:
	for i in range(1, points.size()):
		# Starting Point
		draw_circle(
			to_local(points[i-1]),
			pencil.get_thickness() / 2,
			pencil.get_color()
		)
		# Connecting Line
		draw_line(
			to_local(points[i-1]), to_local(points[i]),
			pencil.get_color(),
			pencil.get_thickness()
		)
		# End Point
		draw_circle(
			to_local(points[i]),
			pencil.get_thickness() / 2,
			pencil.get_color()
		)


func _add_point(position : Vector2):
	points.append(Vector2(
		position.x,
		# draw upside-down because the viewport is Y-flipped
		position.y * -1 + \\
				pencil.get_viewport().get_size().y)
	)
	update() # redraw the line
"

[node name="DrawLine" type="Node2D"]
script = SubResource( 1 )
